<?xml version="1.0" encoding="UTF-8"?>
<session version="1.0">
<refactoring comment="Delete resource &apos;IOIOSimpleApp&apos;" deleteContents="true" description="Delete resource &apos;IOIOSimpleApp&apos;" element1="/IOIOSimpleApp" flags="7" id="org.eclipse.ltk.core.refactoring.delete.resources" resources="1" stamp="1401653142002"/>
</session>